{
    "login_key": "",
    "graph": "",
    "logcontainername": "",
    "admins": [
        "theneedyguy",
        "RightToBearArmsLOL",
	"Destiny",
	"Cake"
    ],
    "ignores": [
	"tng69",
	"autistiny",
	"bot",
	"logs",
	"randomferret",
	"jegonzalez",
	"bonethrone",
	"boiiii",
	"gn0meb0ne",
	"maiayenuhs"
    ],
    "gamerwords": [
    	"aoc",
	"nigger",
	"faggot",
	"nigga",
	"goo.gl",
	"niggers",
	"tiny.cc"
    ]
}
